R para Ciência de Dados I
…
# Selecionando colunas

Para selecionar colunas, utilizamos a função `select()`.

O primeiro argumento da função é a base de dados e os demais argumentos são os nomes das colunas que você gostaria de selecionar. Repare que você não precisa colocar o nome da coluna entre aspas.

.tiny[

```r
select(imdb, titulo)
```

```
## # A tibble: 28,490 × 1
##    titulo                   
##    <chr>                    
##  1 Prestige                 
##  2 Nob Hill                 
##  3 The Shade                
##  4 Viewer Discretion Advised
##  5 Broadcast News           
##  6 Murder, He Says          
##  7 Mother Is a Freshman     
##  8 On the Threshold of Space
##  9 Her Name Was Torment     
## 10 It Lives in the Attic    
## # ℹ 28,480 more rows
```
]

---
<br><br>

Você também pode selecionar várias colunas.

```r
select(imdb, titulo, ano, orcamento)
```

```
## # A tibble: 28,490 × 3
##    titulo                      ano orcamento
##    <chr>                     <dbl>     <dbl>
##  1 Prestige                   1931        NA
##  2 Nob Hill                   1945        NA
##  3 The Shade                  1999    400000
##  4 Viewer Discretion Advised  1998        NA
##  5 Broadcast News             1987  20000000
##  6 Murder, He Says            1945        NA
##  7 Mother Is a Freshman       1949        NA
##  8 On the Threshold of Space  1956   1505000
##  9 Her Name Was Torment       2014       500
## 10 It Lives in the Attic      2016      1000
## # ℹ 28,480 more rows
```

---
<br><br>

O operador `:` é muito útil para selecionar colunas consecutivas.

.tiny[

```r
select(imdb, titulo:generos)
```

```
## # A tibble: 28,490 × 4
##    titulo                      ano data_lancamento generos               
##    <chr>                     <dbl> <chr>           <chr>                 
##  1 Prestige                   1931 1932-01-22      Adventure, Drama      
##  2 Nob Hill                   1945 1945-11-15      Drama, Musical        
##  3 The Shade                  1999 2000-03-01      Drama                 
##  4 Viewer Discretion Advised  1998 2012-05-01      Comedy, Horror        
##  5 Broadcast News             1987 1988-04-01      Comedy, Drama, Romance
##  6 Murder, He Says            1945 1945-06-23      Comedy, Crime, Mystery
##  7 Mother Is a Freshman       1949 1949-06-10      Comedy                
##  8 On the Threshold of Space  1956 1956-04-30      Drama                 
##  9 Her Name Was Torment       2014 2014-04-29      Horror                
## 10 It Lives in the Attic      2016 2016-11-12      Thriller              
## # ℹ 28,480 more rows
```
…
- `starts_with()`: para colunas que começam com um texto padrão
- `ends_with()`: para colunas que terminam com um texto padrão
- `contains()`: para colunas que contêm um texto padrão

Selecionamos a seguir todas as colunas que começam com o texto "num".

.tiny[

```r
select(imdb, starts_with("num"))
```

```
## # A tibble: 28,490 × 3
##    num_avaliacoes num_criticas_publico num_criticas_critica
##             <dbl>                <dbl>                <dbl>
##  1            240                   12                    2
##  2            246                   11                    2
##  3            102                    1                    1
##  4            111                    5                    3
##  5          26257                  142                   62
##  6           1639                   35                   10
##  7            310                    8                    5
##  8            162                    9                   NA
##  9            115                    4                    5
## 10            197                   12                    7
## # ℹ 28,480 more rows
```
]

---
# Ordenando linhas

Para ordenar linhas, utilizamos a função `arrange()`. O primeiro argumento é a base de dados. Os demais argumentos são as colunas pelas quais queremos ordenar as linhas. No exemplo a seguir, ordenamos as linhas da base por ordem crescente de orçamento.

.tiny[

```r
arrange(imdb, orcamento)
```

```
## # A tibble: 28,490 × 20
##    id_filme  titulo   ano data_lancamento generos duracao pais  idioma orcamento
##    <chr>     <chr>  <dbl> <chr>           <chr>     <dbl> <chr> <chr>      <dbl>
##  1 tt5345298 Patie…  2016 2016-10-11      Horror      116 USA   Icela…         0
##  2 tt7692822 Driven  2019 2019-02-09      Comedy…      90 USA   Engli…         0
##  3 tt117773… Murde…  2020 2020-03-21      Crime,…      80 USA   Engli…         0
##  4 tt4540326 Buried  2011 2011-06-25      Thrill…      95 USA   Engli…         0
##  5 tt4655630 Drift…  2016 2017-02-24      Crime,…      86 USA   Engli…         0
##  6 tt7604948 Gutte…  2019 2019-04-28      Crime,…     101 USA   Engli…         0
##  7 tt2226440 Dead …  2018 2018-01-02      Action…     180 USA   Engli…         0
##  8 tt3889450 Ameri…  2017 2017-02-01      Comedy…      96 USA   Engli…         0
##  9 tt5252440 Hot W…  2005 2005-10-01      Animat…      60 USA   Engli…         0
## 10 tt5229754 She W…  2016 2016-06-24      Horror       76 USA   Engli…         0
## # ℹ 28,480 more rows
## # ℹ 11 more variables: receita <dbl>, receita_eua <dbl>, nota_imdb <dbl>,
## #   num_avaliacoes <dbl>, direcao <chr>, roteiro <chr>, producao <chr>,
## #   elenco <chr>, descricao <chr>, num_criticas_publico <dbl>,
## #   num_criticas_critica <dbl>
```
]

---
<br><br>

Também podemos ordenar de forma decrescente usando a função `desc()`.

.tiny[

```r
arrange(imdb, desc(orcamento))
```

```
## # A tibble: 28,490 × 20
##    id_filme  titulo   ano data_lancamento generos duracao pais  idioma orcamento
##    <chr>     <chr>  <dbl> <chr>           <chr>     <dbl> <chr> <chr>      <dbl>
##  1 tt4154796 Aveng…  2019 2019-04-24      Action…     181 USA   Engli… 356000000
##  2 tt4154756 Aveng…  2018 2018-04-25      Action…     149 USA   Engli… 321000000
##  3 tt2527336 Star …  2017 2017-12-13      Action…     152 USA   Engli… 317000000
##  4 tt0449088 Pirat…  2007 2007-05-23      Action…     169 USA   Engli… 300000000
##  5 tt2527338 Star …  2019 2019-12-18      Action…     141 USA   Engli… 275000000
##  6 tt3778644 Solo:…  2018 2018-05-23      Action…     135 USA   Engli… 275000000
##  7 tt0348150 Super…  2006 2006-09-01      Action…     154 USA   Engli… 270000000
##  8 tt0398286 Tangl…  2010 2010-11-26      Animat…     100 USA   Engli… 260000000
##  9 tt0413300 Spide…  2007 2007-05-01      Action…     139 USA   Engli… 258000000
## 10 tt2975590 Batma…  2016 2016-03-23      Action…     152 USA   Engli… 250000000
## # ℹ 28,480 more rows
## # ℹ 11 more variables: receita <dbl>, receita_eua <dbl>, nota_imdb <dbl>,
## #   num_avaliacoes <dbl>, direcao <chr>, roteiro <chr>, producao <chr>,
## #   elenco <chr>, descricao <chr>, num_criticas_publico <dbl>,
## #   num_criticas_critica <dbl>
```
]

---
<br><br>

E claro, ordenar segundo duas ou mais colunas.

.tiny[

```r
arrange(imdb, desc(ano), desc(orcamento))
```

```
## # A tibble: 28,490 × 20
##    id_filme  titulo   ano data_lancamento generos duracao pais  idioma orcamento
##    <chr>     <chr>  <dbl> <chr>           <chr>     <dbl> <chr> <chr>      <dbl>
##  1 tt6587640 Troll…  2020 2020-04-10      Animat…      90 USA   Engli…  90000000
##  2 tt7713068 Birds…  2020 2020-02-06      Action…     109 USA   Engli…  84500000
##  3 tt5774060 Under…  2020 2020-01-30      Action…      95 USA   Engli…  80000000
##  4 tt6820324 Timmy…  2020 2020-03-24      Advent…      99 USA   Engli…  45000000
##  5 tt1634106 Blood…  2020 2020-03-27      Action…     109 USA   Engli…  45000000
##  6 tt100595… Unhin…  2020 2020-09-24      Action…      90 USA   Engli…  33000000
##  7 tt8461224 The T…  2020 2020-08-07      Action…      95 USA   Engli…  30000000
##  8 tt7939428 10 Th…  2020 2020-02-21      Romance      74 USA   Engli…  25000000
##  9 tt103089… Force…  2020 2020-06-30      Action…      91 USA   Engli…  23000000
## 10 tt4411584 The S…  2020 2020-07-31      Drama,…     107 USA   Engli…  21000000
## # ℹ 28,480 more rows
## # ℹ 11 more variables: receita <dbl>, receita_eua <dbl>, nota_imdb <dbl>,
## #   num_avaliacoes <dbl>, direcao <chr>, roteiro <chr>, producao <chr>,
## #   elenco <chr>, descricao <chr>, num_criticas_publico <dbl>,
## #   num_criticas_critica <dbl>
```
…
---
<br><br>

Também podemos fazer operações com as colunas da base dentro da função filter. O código abaixo devolve uma tabela apenas com os filmes que lucraram.

.tiny[

```r
imdb |> filter(receita - orcamento > 0)
```

```
## # A tibble: 2,584 × 20
##    id_filme  titulo   ano data_lancamento generos duracao pais  idioma orcamento
##    <chr>     <chr>  <dbl> <chr>           <chr>     <dbl> <chr> <chr>      <dbl>
##  1 tt0092699 Broad…  1987 1988-04-01      Comedy…     133 USA   Engli…  20000000
##  2 tt0183505 Me, M…  2000 2000-09-08      Comedy      116 USA   Engli…  51000000
##  3 tt0093640 No Wa…  1987 1987-12-11      Action…     114 USA   Engli…  15000000
##  4 tt0494652 Welco…  2008 2008-02-08      Comedy…     104 USA   Engli…  35000000
##  5 tt0285869 Pando…  2002 2002-09-27      Drama,…     103 USA   Engli…    800000
##  6 tt1488555 The C…  2011 2011-12-09      Comedy…     112 USA   Engli…  52000000
##  7 tt0090022 Silve…  1985 1986-01-16      Action…     133 USA   Engli…  26000000
##  8 tt0120434 Vegas…  1997 1997-02-14      Comedy       93 USA   Engli…  25000000
##  9 tt1086772 Blend…  2014 2014-07-02      Comedy…     117 USA   Engli…  40000000
## 10 tt0064115 Butch…  1969 1969-09-26      Biogra…     110 USA   Engli…   6000000
## # ℹ 2,574 more rows
## # ℹ 11 more variables: receita <dbl>, receita_eua <dbl>, nota_imdb <dbl>,
## #   num_avaliacoes <dbl>, direcao <chr>, roteiro <chr>, producao <chr>,
## #   elenco <chr>, descricao <chr>, num_criticas_publico <dbl>,
## #   num_criticas_critica <dbl>
```
…
```
## [1]  TRUE  TRUE  TRUE FALSE  TRUE FALSE
```

```r
# Aplicamos essa lógica dentro da função filter, para a coluna completa
imdb |> filter(str_detect(generos, "Drama"))
```

```
## # A tibble: 13,816 × 20
##    id_filme  titulo   ano data_lancamento generos duracao pais  idioma orcamento
##    <chr>     <chr>  <dbl> <chr>           <chr>     <dbl> <chr> <chr>      <dbl>
##  1 tt0023352 Prest…  1931 1932-01-22      Advent…      71 USA   Engli…        NA
##  2 tt0037946 Nob H…  1945 1945-11-15      Drama,…      95 USA   Engli…        NA
##  3 tt0216204 The S…  1999 2000-03-01      Drama        83 USA   Engli…    400000
##  4 tt0092699 Broad…  1987 1988-04-01      Comedy…     133 USA   Engli…  20000000
##  5 tt0049571 On th…  1956 1956-04-30      Drama        98 USA   Engli…   1505000
##  6 tt0421539 9/Ten…  2006 2008-08-28      Drama,…      98 USA   Engli…   1000000
##  7 tt0027200 Westw…  1935 1935-08-19      Action…      61 USA   Engli…     35000
##  8 tt2822280 Confe…  2015 2015-03-24      Drama        90 USA   Engli…        NA
##  9 tt0372122 Adam …  2005 2007-05-17      Comedy…      99 USA   Engli…        NA
## 10 tt3703836 Henry…  2015 2016-01-08      Drama        87 USA   Engli…        NA
## # ℹ 13,806 more rows
## # ℹ 11 more variables: receita <dbl>, receita_eua <dbl>, nota_imdb <dbl>,
## #   num_avaliacoes <dbl>, direcao <chr>, roteiro <chr>, producao <chr>,
## #   elenco <chr>, descricao <chr>, num_criticas_publico <dbl>,
## #   num_criticas_critica <dbl>
```
]

---
# Criando novas colunas

Para modificar uma coluna existente ou criar uma nova coluna, utilizamos a função `mutate()`. O código abaixo divide os valores da coluna duração por 60, mudando a unidade de medida dessa variável de minutos para horas.

.tiny[

```r
imdb |> mutate(duracao = duracao/60)
```

```
## # A tibble: 28,490 × 20
##    id_filme  titulo   ano data_lancamento generos duracao pais  idioma orcamento
##    <chr>     <chr>  <dbl> <chr>           <chr>     <dbl> <chr> <chr>      <dbl>
##  1 tt0023352 Prest…  1931 1932-01-22      Advent…   1.18  USA   Engli…        NA
##  2 tt0037946 Nob H…  1945 1945-11-15      Drama,…   1.58  USA   Engli…        NA
##  3 tt0216204 The S…  1999 2000-03-01      Drama     1.38  USA   Engli…    400000
##  4 tt0171889 Viewe…  1998 2012-05-01      Comedy…   1.75  USA   Engli…        NA
##  5 tt0092699 Broad…  1987 1988-04-01      Comedy…   2.22  USA   Engli…  20000000
##  6 tt0037931 Murde…  1945 1945-06-23      Comedy…   1.52  USA   Engli…        NA
##  7 tt0041659 Mothe…  1949 1949-06-10      Comedy    1.35  USA   Engli…        NA
##  8 tt0049571 On th…  1956 1956-04-30      Drama     1.63  USA   Engli…   1505000
##  9 tt3772198 Her N…  2014 2014-04-29      Horror    0.833 USA   <NA>         500
## 10 tt6212020 It Li…  2016 2016-11-12      Thrill…   1.42  USA   Engli…      1000
## # ℹ 28,480 more rows
## # ℹ 11 more variables: receita <dbl>, receita_eua <dbl>, nota_imdb <dbl>,
## #   num_avaliacoes <dbl>, direcao <chr>, roteiro <chr>, producao <chr>,
## #   elenco <chr>, descricao <chr>, num_criticas_publico <dbl>,
## #   num_criticas_critica <dbl>
```
]

---
<br><br>

Também poderíamos ter criado essa variável em uma nova coluna. Repare que a nova coluna `duracao_horas` é colocada no final da tabela.

.tiny[

```r
imdb |> mutate(duracao_horas = duracao/60)
```

```
## # A tibble: 28,490 × 21
##    id_filme  titulo   ano data_lancamento generos duracao pais  idioma orcamento
##    <chr>     <chr>  <dbl> <chr>           <chr>     <dbl> <chr> <chr>      <dbl>
##  1 tt0023352 Prest…  1931 1932-01-22      Advent…      71 USA   Engli…        NA
##  2 tt0037946 Nob H…  1945 1945-11-15      Drama,…      95 USA   Engli…        NA
##  3 tt0216204 The S…  1999 2000-03-01      Drama        83 USA   Engli…    400000
##  4 tt0171889 Viewe…  1998 2012-05-01      Comedy…     105 USA   Engli…        NA
##  5 tt0092699 Broad…  1987 1988-04-01      Comedy…     133 USA   Engli…  20000000
##  6 tt0037931 Murde…  1945 1945-06-23      Comedy…      91 USA   Engli…        NA
##  7 tt0041659 Mothe…  1949 1949-06-10      Comedy       81 USA   Engli…        NA
##  8 tt0049571 On th…  1956 1956-04-30      Drama        98 USA   Engli…   1505000
##  9 tt3772198 Her N…  2014 2014-04-29      Horror       50 USA   <NA>         500
## 10 tt6212020 It Li…  2016 2016-11-12      Thrill…      85 USA   Engli…      1000
## # ℹ 28,480 more rows
## # ℹ 12 more variables: receita <dbl>, receita_eua <dbl>, nota_imdb <dbl>,
## #   num_avaliacoes <dbl>, direcao <chr>, roteiro <chr>, producao <chr>,
## #   elenco <chr>, descricao <chr>, num_criticas_publico <dbl>,
## #   num_criticas_critica <dbl>, duracao_horas <dbl>
```
…
---
<br><br>

Podemos fazer qualquer operação com uma ou mais colunas. A única regra é que o resultado da operação retorne um vetor com comprimento igual ao número de linhas da base (ou com comprimento 1 para distribuir um mesmo valor em todas as linhas). Você também pode criar/modificar quantas colunas quiser dentro de um mesmo `mutate`.

.tiny[

```r
imdb |> 
  mutate(lucro = receita - orcamento, pais = "Estados Unidos") |> 
  select(titulo, lucro, pais)
```

```
## # A tibble: 28,490 × 3
##    titulo                       lucro pais          
##    <chr>                        <dbl> <chr>         
##  1 Prestige                        NA Estados Unidos
##  2 Nob Hill                        NA Estados Unidos
##  3 The Shade                       NA Estados Unidos
##  4 Viewer Discretion Advised       NA Estados Unidos
##  5 Broadcast News            47331309 Estados Unidos
##  6 Murder, He Says                 NA Estados Unidos
##  7 Mother Is a Freshman            NA Estados Unidos
##  8 On the Threshold of Space       NA Estados Unidos
##  9 Her Name Was Torment            NA Estados Unidos
## 10 It Lives in the Attic           NA Estados Unidos
## # ℹ 28,480 more rows
```
…
Muitas vezes queremos sumarizar uma coluna agrupada pelas categorias de uma segunda coluna. Para isso, além do `summarize`, utilizamos também a função `group_by()`.

O código a seguir calcula a receita média dos filmes para cada categoria da coluna "direcao".

```r
imdb |> 
  group_by(direcao) |> 
  summarise(receita_media = mean(receita, na.rm = TRUE)) |> 
  drop_na(receita_media) |> 
  arrange(desc(receita_media))
```

```
## # A tibble: 4,032 × 2
##    direcao                       receita_media
##    <chr>                                 <dbl>
##  1 Anthony Russo, Joe Russo        1368908569.
##  2 Chris Buck, Jennifer Lee        1365415143 
##  3 J.A. Bayona                     1331958159 
##  4 Kyle Balda, Pierre Coffin       1097121269 
##  5 James Cameron                   1086440534.
##  6 Josh Cooley                     1073394593 
##  7 Lee Unkrich                     1066969703 
##  8 Gareth Edwards                  1056057720 
##  9 Andrew Stanton, Angus MacLane   1028570889 
## 10 Byron Howard, Rich Moore        1023789075 
## # ℹ 4,022 more rows
```

---
<br><br>

A única alteração que a função `group_by()` faz na base é a marcação de que a base está agrupada.

.tiny[

```r
imdb |> group_by(direcao)
```

```
## # A tibble: 28,490 × 20
## # Groups:   direcao [12,459]
##    id_filme  titulo   ano data_lancamento generos duracao pais  idioma orcamento
##    <chr>     <chr>  <dbl> <chr>           <chr>     <dbl> <chr> <chr>      <dbl>
##  1 tt0023352 Prest…  1931 1932-01-22      Advent…      71 USA   Engli…        NA
##  2 tt0037946 Nob H…  1945 1945-11-15      Drama,…      95 USA   Engli…        NA
##  3 tt0216204 The S…  1999 2000-03-01      Drama        83 USA   Engli…    400000
##  4 tt0171889 Viewe…  1998 2012-05-01      Comedy…     105 USA   Engli…        NA
##  5 tt0092699 Broad…  1987 1988-04-01      Comedy…     133 USA   Engli…  20000000
##  6 tt0037931 Murde…  1945 1945-06-23      Comedy…      91 USA   Engli…        NA
##  7 tt0041659 Mothe…  1949 1949-06-10      Comedy       81 USA   Engli…        NA
##  8 tt0049571 On th…  1956 1956-04-30      Drama        98 USA   Engli…   1505000
##  9 tt3772198 Her N…  2014 2014-04-29      Horror       50 USA   <NA>         500
## 10 tt6212020 It Li…  2016 2016-11-12      Thrill…      85 USA   Engli…      1000
## # ℹ 28,480 more rows
## # ℹ 11 more variables: receita <dbl>, receita_eua <dbl>, nota_imdb <dbl>,
## #   num_avaliacoes <dbl>, direcao <chr>, roteiro <chr>, producao <chr>,
## #   elenco <chr>, descricao <chr>, num_criticas_publico <dbl>,
## #   num_criticas_critica <dbl>
```
…
Podemos juntar duas tabelas a partir de uma (coluna) chave utilizando a função `left_join()`. Como exempo, vamos inicialmente calcular o lucro médio dos filmes de cada pessoa que dirige filme e salvar no objeto `tab_lucro_direcao`.

.tiny[

```r
tab_lucro_direcao <- imdb |>
  group_by(direcao) |> 
  summarise(lucro_medio = mean(receita - orcamento, na.rm = TRUE))

tab_lucro_direcao
```

```
## # A tibble: 12,459 × 2
##    direcao                              lucro_medio
##    <chr>                                      <dbl>
##  1 'Evil' Ted Smith                             NaN
##  2 'Philthy' Phil Phillips                      NaN
##  3 A. Dean Bell                                 NaN
##  4 A. Edward Sutherland                         NaN
##  5 A. Edward Sutherland, John Rawlins           NaN
##  6 A. Edward Sutherland, Wesley Ruggles         NaN
##  7 A. Raven Cruz                            -996300
##  8 A.D. Calvo                                   NaN
##  9 A.J. Edwards                                 NaN
## 10 A.J. Kparr                                   NaN
## # ℹ 12,449 more rows
```
…
